{
  "name": "business",
  "plural": "businesses",
  "base": "PersistedModel",
  "idInjection": true,
  "options": {
    "emailVerificationRequired": false,
    "validateUpsert": true,
    "postgresql": {
      "schema": "public",
      "table": "empresas"
    }
  },
  "properties": {
    "nombre_comercial": {
      "type": "string",
      "required": true
    },
    "nombre_fiscal": {
      "type": "string",
      "required": true
    },
    "tipo_fiscal": {
      "type": "string"
    },
    "telefono": {
      "type": "string"
    },
    "email": {
      "type": "string"
    },
    "calle": {
      "type": "string"
    },
    "num_ext": {
      "type": "string"
    },
    "num_int": {
      "type": "string"
    },
    "colonia": {
      "type": "string"
    },
    "cod_postal": {
      "type": "string"
    },
    "localidad": {
      "type": "string"
    },
    "municipio": {
      "type": "string"
    },
    "estado": {
      "type": "string"
    },
    "fecha_apertura": {
      "type": "string"
    },
    "estatus": {
      "type": "boolean"
    },
    "registro": {
      "type": "string"
    }
  },
  "validations": [],
  "relations": {},
  "acls": [],
  "methods": {}
}
